{
  "rules": {
    "semicolon": [ true, "never", "ignore-interfaces" ],
    "indent": [ true, "spaces" ],
    "quotemark": [ true, "single", "avoid-escape" ],
    "member-ordering": false,
    "trailing-comma": false,
    "ordered-imports": false,
    "member-access": false,
    "no-bitwise": false,
    "no-string-literal": false,
    "arrow-parens": [
      true,
      "ban-single-arg-parens"
    ],
    "object-literal-sort-keys": false,
    "no-trailing-whitespace": true,
    "no-duplicate-variable": true
  },
  "extends": "tslint:recommended"
}
